PCB 2024-1 Grupo T446 - Filogenias
…
Destacar el géneroIcterus:

ictree %>%
  as_tibble %>%
  filter(grepl("Icterus",label))

# A tibble: 31 × 4
   parent  node branch.length label                
    <int> <int>         <dbl> <chr>                
 1    111     1         0.193 Icterus_melanopsis   
 2    111     2         0.193 Icterus_northropi    
 3    114     3         1.47  Icterus_laudabilis   
 4    114     4         1.47  Icterus_dominicensis 
 5    116     5         0.197 Icterus_cayanensis   
 6    116     6         0.197 Icterus_pyrrhopterus 
 7    115     7         0.943 Icterus_auricapillus 
 8    117     8         1.49  Icterus_bonana       
 9    117     9         1.49  Icterus_portoricensis
10    118    10         2.24  Icterus_prosthemelas 
# ℹ 21 more rows
…
